{
    "user" : {

        "id" : "234",
        "name" : "Miles Alden",
        "email" : "miles.alden@ensighten.com",
        "userType" : "Software Engineer",
        "userManager" : "Cory Sandahl",
        "userOrg" : "Engineering"
    }
}
