{
    "survey" : {

        "id" : "6945",
        "surveyName" : "Peer Feedback",

        "questions" : [

            {
                "questionId" : "675",
                "questionText": "Do they have the healing factor like Wolverine A Lorem ipsum Velit nulla consectetur non minim pariatur Ut minim sed magna dolor reprehenderit.?",
                "questionRange": "0-5",

                "options" : [

                    {
                        "optionId" : "2",
                        "optionText" : "Significantly Lower than Average",
                        "optionValue" : "1",
                        "optionOrder" : "1",
                        "optionType" : "radio"
                    },
                    {
                        "optionId" : "23",
                        "optionText" : "Slightly Lower than Average",
                        "optionValue" : "2",
                        "optionOrder" : "2",
                        "optionType" : "radio"

                    },
                    {
                        "optionId" : "643",
                        "optionText" : "Average",
                        "optionValue" : "3",
                        "optionOrder" : "3",
                        "optionType" : "radio"

                    },
                    {
                        "optionId" : "78",
                        "optionText" : "Slightly Higher than Average",
                        "optionValue" : "4",
                        "optionOrder" : "4",
                        "optionType" : "radio"

                    },
                    {
                        "optionId" : "12",
                        "optionText" : "Significantly Higher than Average",
                        "optionValue" : "5",
                        "optionOrder" : "5",
                        "optionType" : "radio"

                    },
                    {
                        "optionId" : "234234",
                        "optionText" : "I have No Idea",
                        "optionValue" : "0",
                        "optionOrder" : "6",
                        "optionType" : "radio"
                    }
                ]
            },
            {
                "questionId" : "673453",
                "questionText": "Do they have the healing factor like Wolverine B?",
                "questionRange": "0-5",

                "options" : [

                    {
                        "optionId" : "2",
                        "optionText" : "Significantly Lower than Average",
                        "optionValue" : "1",
                        "optionOrder" : "1",
                        "optionType" : "radio"
                    },
                    {
                        "optionId" : "23",
                        "optionText" : "Slightly Lower than Average",
                        "optionValue" : "2",
                        "optionOrder" : "2",
                        "optionType" : "radio"

                    },
                    {
                        "optionId" : "643",
                        "optionText" : "Average",
                        "optionValue" : "3",
                        "optionOrder" : "3",
                        "optionType" : "radio"

                    },
                    {
                        "optionId" : "78",
                        "optionText" : "Slightly Higher than Average",
                        "optionValue" : "4",
                        "optionOrder" : "4",
                        "optionType" : "radio"

                    },
                    {
                        "optionId" : "12",
                        "optionText" : "Significantly Higher than Average",
                        "optionValue" : "5",
                        "optionOrder" : "5",
                        "optionType" : "radio"

                    },
                    {
                        "optionId" : "234234",
                        "optionText" : "I have No Idea",
                        "optionValue" : "0",
                        "optionOrder" : "6",
                        "optionType" : "radio"
                    }
                ]
            },
            {
                "questionId" : "6751",
                "questionText": "Do they have the healing factor like Wolverine C?",
                "questionRange": "0-5",

                "options" : [

                    {
                        "optionId" : "2",
                        "optionText" : "Significantly Lower than Average",
                        "optionValue" : "1",
                        "optionOrder" : "1",
                        "optionType" : "radio"
                    },
                    {
                        "optionId" : "23",
                        "optionText" : "Slightly Lower than Average",
                        "optionValue" : "2",
                        "optionOrder" : "2",
                        "optionType" : "radio"

                    },
                    {
                        "optionId" : "643",
                        "optionText" : "Average",
                        "optionValue" : "3",
                        "optionOrder" : "3",
                        "optionType" : "radio"

                    },
                    {
                        "optionId" : "78",
                        "optionText" : "Slightly Higher than Average",
                        "optionValue" : "4",
                        "optionOrder" : "4",
                        "optionType" : "radio"

                    },
                    {
                        "optionId" : "12",
                        "optionText" : "Significantly Higher than Average",
                        "optionValue" : "5",
                        "optionOrder" : "5",
                        "optionType" : "radio"

                    },
                    {
                        "optionId" : "234234",
                        "optionText" : "I have No Idea",
                        "optionValue" : "0",
                        "optionOrder" : "6",
                        "optionType" : "radio"
                    }
                ]
            },
            {
                "questionId" : "6759",
                "questionText": "Do they have the healing factor like Wolverine D?",
                "questionRange": "0-5",

                "options" : [

                    {
                        "optionId" : "2",
                        "optionText" : "Significantly Lower than Average",
                        "optionValue" : "1",
                        "optionOrder" : "1",
                        "optionType" : "radio"
                    },
                    {
                        "optionId" : "23",
                        "optionText" : "Slightly Lower than Average",
                        "optionValue" : "2",
                        "optionOrder" : "2",
                        "optionType" : "radio"

                    },
                    {
                        "optionId" : "643",
                        "optionText" : "Average",
                        "optionValue" : "3",
                        "optionOrder" : "3",
                        "optionType" : "radio"

                    },
                    {
                        "optionId" : "78",
                        "optionText" : "Slightly Higher than Average",
                        "optionValue" : "4",
                        "optionOrder" : "4",
                        "optionType" : "radio"

                    },
                    {
                        "optionId" : "12",
                        "optionText" : "Significantly Higher than Average",
                        "optionValue" : "5",
                        "optionOrder" : "5",
                        "optionType" : "radio"

                    },
                    {
                        "optionId" : "234234",
                        "optionText" : "I have No Idea",
                        "optionValue" : "0",
                        "optionOrder" : "6",
                        "optionType" : "radio"
                    }
                ]
            },
            {
                "questionId" : "6758",
                "questionText": "Do they have the healing factor like Wolverine E?",
                "questionRange": "0-5",

                "options" : [

                    {
                        "optionId" : "2",
                        "optionText" : "Significantly Lower than Average",
                        "optionValue" : "1",
                        "optionOrder" : "1",
                        "optionType" : "radio"
                    },
                    {
                        "optionId" : "23",
                        "optionText" : "Slightly Lower than Average",
                        "optionValue" : "2",
                        "optionOrder" : "2",
                        "optionType" : "radio"

                    },
                    {
                        "optionId" : "643",
                        "optionText" : "Average",
                        "optionValue" : "3",
                        "optionOrder" : "3",
                        "optionType" : "radio"

                    },
                    {
                        "optionId" : "78",
                        "optionText" : "Slightly Higher than Average",
                        "optionValue" : "4",
                        "optionOrder" : "4",
                        "optionType" : "radio"

                    },
                    {
                        "optionId" : "12",
                        "optionText" : "Significantly Higher than Average",
                        "optionValue" : "5",
                        "optionOrder" : "5",
                        "optionType" : "radio"

                    },
                    {
                        "optionId" : "234234",
                        "optionText" : "I have No Idea",
                        "optionValue" : "0",
                        "optionOrder" : "6",
                        "optionType" : "radio"
                    }
                ]
            }
        ]
    }
}
